Final.utf8
…
Here, we are using the columns of each attribute to calculate the result and store it into a vector which can be placed into our final data_frame with the data calculated. Also, to calculate the number of singles, we will just subtract the number of doubles, triples, and home runs from the total hits so that we can use the number of singles in the calculation of our slugging percentage.

winp <- (derive_table$W/derive_table$G) * 100
batavg <- derive_table$H/derive_table$AB
singles <- (derive_table$H) - (derive_table$`2B` + derive_table$`3B` + derive_table$HR)
slug_total <- singles + (2 * derive_table$`2B`) + (3 * derive_table$`3B`) + (4 * derive_table$HR)
slugp <- slug_total/derive_table$AB
stats <- data_frame(yearID = derive_table$yearID, teamID = derive_table$teamID, Win_Percentage = winp, AB = derive_table$AB, H = derive_table$H, Batting_Avg = batavg, Slugging_Percentage = slugp, HR = derive_table$HR, SB = derive_table$SB, ERA = derive_table$ERA)

## Warning: `data_frame()` is deprecated, use `tibble()`.
## This warning is displayed once per session.

stats

## # A tibble: 1,652 x 10
##    yearID teamID Win_Percentage    AB     H Batting_Avg Slugging_Percen~    HR
##     <int> <chr>           <dbl> <int> <int>       <dbl>            <dbl> <int>
##  1   1950 BOS              61.0  5516  1665       0.302            0.464   161
##  2   1950 CHA              38.5  5260  1368       0.260            0.364    93
##  3   1950 CLE              59.4  5263  1417       0.269            0.422   164
##  4   1950 DET              60.5  5381  1518       0.282            0.417   114
##  5   1950 NYA              63.2  5361  1511       0.282            0.441   159
##  6   1950 PHA              33.8  5212  1361       0.261            0.378   100
##  7   1950 SLA              37.7  5163  1269       0.246            0.370   106
##  8   1950 WS1              43.2  5251  1365       0.260            0.360    76
##  9   1950 BRO              57.4  5364  1461       0.272            0.444   194
## 10   1950 BSN              53.2  5363  1411       0.263            0.405   148
## # ... with 1,642 more rows, and 2 more variables: SB <int>, ERA <dbl>
…
